{
  "parent": "item/handheld",
  "textures": {
    "layer0": "talisman:items/large_sword"
  },
  "display": {
    "thirdperson_righthand": {
      "rotation": [
        356,
        92,
        54
      ],
      "translation": [
        0.00,
        8.00,
        2.00
      ],
      "scale": [
        1.3,
        1.3,
        1.3
      ]
    },
    "thirdperson_lefthand": {
      "rotation": [
        250,
        92,
        54
      ],
      "translation": [
        0.00,
        8.00,
        2.00
      ],
      "scale": [
        1.3,
        1.3,
        1.3
      ]
    },
    "firstperson_righthand": {
      "rotation": [
        -25,
        -90,
        0
      ],
      "translation": [
        1.13,
        3.20,
        1.13
      ],
      "scale": [
        1.3,
        1.3,
        1.3
      ]
    },
    "firstperson_lefthand": {
      "rotation": [
        25,
        -90,
        0
      ],
      "translation": [
        1.13,
        3.20,
        1.13
      ],
      "scale": [
        1.3,
        1.3,
        1.3
      ]
    },
    "gui": {
      "rotation": [
        0,
        0,
        0
      ],
      "translation": [
        0.00,
        0.00,
        0.00
      ],
      "scale": [
        1.0,
        1.0,
        1.0
      ]
    },
    "head": {
      "rotation": [
        -180,
        -0,
        -180
      ],
      "translation": [
        -0.00,
        13.00,
        7.00
      ],
      "scale": [
        1.00,
        1.00,
        1.00
      ]
    },
    "fixed": {
      "rotation": [
        0,
        0,
        0
      ],
      "translation": [
        0.00,
        0.00,
        0.00
      ],
      "scale": [
        1.00,
        1.00,
        1.00
      ]
    },
    "ground": {
      "rotation": [
        0,
        0,
        0
      ],
      "translation": [
        0.00,
        4.00,
        0.00
      ],
      "scale": [
        1.3,
        1.3,
        1.3
      ]
    }
  }
}